{
  "pieceId": 1055,
  "pieceType": "SKILL",
  "pieceName": "静淑なる朝稽古",
  "attributeId": "ALL",
  "rank": "RANK_3",
  "attack": 0,
  "defense": 630,
  "hp": 570,
  "skillId": 105510,
  "pieceSkill": {
    "id": 105510,
    "groupId": 1128,
    "name": "プロヴォーク[Ⅶ]",
    "type": "SKILL",
    "intervalTurn": 7,
    "shortDescription": "確率で挑発[Ⅶ](自/1T)",
    "messageId": 70,
    "artId1": 610207507,
    "art1": {
      "artId": 610207507,
      "verbCode": "CONDITION_GOOD",
      "effectCode": "PROVOKE",
      "targetId": "SELF",
      "enableTurn": 1,
      "growPoint": 0,
      "probability": 400
    },
    "skillEffectRange": "ALL"
  },
  "skillId2": 105511,
  "pieceSkill2": {
    "id": 105511,
    "groupId": 1128,
    "name": "プロヴォーク[Ⅷ]",
    "type": "SKILL",
    "intervalTurn": 6,
    "shortDescription": "確率で挑発[Ⅷ](自/1T)",
    "messageId": 70,
    "artId1": 610207508,
    "art1": {
      "artId": 610207508,
      "verbCode": "CONDITION_GOOD",
      "effectCode": "PROVOKE",
      "targetId": "SELF",
      "enableTurn": 1,
      "growPoint": 0,
      "probability": 450
    },
    "skillEffectRange": "ALL"
  },
  "description": "「私の朝は、まず道場の掃除をしてからの…素振り千本！これです！＠ただーし！振り回せばいいというものではありません…。＠神経を研ぎ澄まし、動きをひとつひとつ確認することが肝要！＠体に染み込ませた動きこそ、実戦で活きてくるというものですよ！」",
  "illustrator": "シャフト",
  "__update__": "2020-11-27T09:54:41.501Z"
}