{
  "pieceId": 1083,
  "pieceType": "SKILL",
  "pieceName": "勇往邁進",
  "attributeId": "ALL",
  "rank": "RANK_3",
  "charaIds": "3001",
  "charaList": [
    {
      "charaId": 3001,
      "name": "矢宵 かのこ"
    }
  ],
  "attack": 0,
  "defense": 422,
  "hp": 502,
  "skillId": 108300,
  "pieceSkill": {
    "id": 108300,
    "groupId": 1103,
    "name": "チャーム・アイズ[Ⅸ]",
    "type": "SKILL",
    "intervalTurn": 15,
    "shortDescription": "確率で魅了[Ⅸ](敵全/1T)",
    "messageId": 70,
    "artId1": 510303909,
    "art1": {
      "artId": 510303909,
      "verbCode": "CONDITION_BAD",
      "effectCode": "CHARM",
      "targetId": "ALL",
      "enableTurn": 1,
      "growPoint": 0,
      "probability": 500
    },
    "skillEffectRange": "ALL"
  },
  "skillId2": 108301,
  "pieceSkill2": {
    "id": 108301,
    "groupId": 1103,
    "name": "チャーム・アイズ[Ⅹ]",
    "type": "SKILL",
    "intervalTurn": 13,
    "shortDescription": "確率で魅了[Ⅹ](敵全/1T)",
    "messageId": 70,
    "artId1": 510303910,
    "art1": {
      "artId": 510303910,
      "verbCode": "CONDITION_BAD",
      "effectCode": "CHARM",
      "targetId": "ALL",
      "enableTurn": 1,
      "growPoint": 0,
      "probability": 525
    },
    "skillEffectRange": "ALL"
  },
  "description": "目指すは世界中の人に通じるファッションデザイナー！＠夢に向かって日々、ファッションセンスを磨いている。＠彼女の奇抜なセンスには、周りも驚きを隠せない。＠そんな反応をわかっていながらも、彼女は挫けずに努力をし続ける。",
  "illustrator": "mepo",
  "__update__": "2020-11-27T09:54:41.487Z"
}