{
  "pieceId": 1127,
  "pieceType": "ABILITY",
  "pieceName": "地下水路の手荒い歓迎",
  "attributeId": "ALL",
  "rank": "RANK_3",
  "attack": 542,
  "defense": 0,
  "hp": 662,
  "skillId": 112700,
  "pieceSkill": {
    "id": 112700,
    "groupId": 1086,
    "name": "アンチ・スタン",
    "type": "ABILITY",
    "shortDescription": "防御力UP[Ⅲ] & 必ずスタン無効",
    "artId1": 390201203,
    "art1": {
      "artId": 390201203,
      "verbCode": "BUFF",
      "effectCode": "DEFENSE",
      "targetId": "SELF",
      "effectValue": 225,
      "growPoint": 25,
      "probability": 1000
    },
    "artId2": 690208400,
    "art2": {
      "artId": 690208400,
      "verbCode": "IGNORE",
      "effectCode": "STUN",
      "targetId": "SELF",
      "growPoint": 0,
      "probability": 1000
    },
    "skillEffectRange": "ALL"
  },
  "skillId2": 112701,
  "pieceSkill2": {
    "id": 112701,
    "groupId": 1086,
    "name": "アンチ・スタン",
    "type": "ABILITY",
    "shortDescription": "防御力UP[Ⅳ] & 必ずスタン無効",
    "artId1": 390201204,
    "art1": {
      "artId": 390201204,
      "verbCode": "BUFF",
      "effectCode": "DEFENSE",
      "targetId": "SELF",
      "effectValue": 300,
      "growPoint": 25,
      "probability": 1000
    },
    "artId2": 690208400,
    "art2": {
      "artId": 690208400,
      "verbCode": "IGNORE",
      "effectCode": "STUN",
      "targetId": "SELF",
      "growPoint": 0,
      "probability": 1000
    },
    "skillEffectRange": "ALL"
  },
  "description": "深月フェリシアに案内されて辿り着いたのは薄暗い地下水路＠そこで待ち受けていたのは、追っていた魔法少女ではなく、＠地下水路を住処にしていた、暗闇の生物たちだった！＠キーッキーッキーッ！「きゃあー！」「うわっ！」「あっははは！」",
  "illustrator": "シャフト",
  "openDate": "2017/10/23 15:10:00",
  "__update__": "2020-11-27T08:08:22.017Z"
}