{
  "pieceId": 1236,
  "pieceType": "ABILITY",
  "pieceName": "ふたりだけの海と空",
  "attributeId": "ALL",
  "rank": "RANK_3",
  "attack": 541,
  "defense": 0,
  "hp": 662,
  "skillId": 123600,
  "pieceSkill": {
    "id": 123600,
    "groupId": 1143,
    "name": "アンチ・ダークネス",
    "type": "ABILITY",
    "shortDescription": "必ず暗闇無効 & 状態異常耐性UP[Ⅰ]",
    "artId1": 690209000,
    "art1": {
      "artId": 690209000,
      "verbCode": "IGNORE",
      "effectCode": "DARKNESS",
      "targetId": "SELF",
      "growPoint": 0,
      "probability": 1000
    },
    "artId2": 390201501,
    "art2": {
      "artId": 390201501,
      "verbCode": "BUFF",
      "effectCode": "RESIST",
      "targetId": "SELF",
      "effectValue": 200,
      "growPoint": 25,
      "probability": 1000
    },
    "skillEffectRange": "ALL"
  },
  "skillId2": 123601,
  "pieceSkill2": {
    "id": 123601,
    "groupId": 1143,
    "name": "アンチ・ダークネス",
    "type": "ABILITY",
    "shortDescription": "必ず暗闇無効 & 状態異常耐性UP[Ⅲ]",
    "artId1": 690209000,
    "art1": {
      "artId": 690209000,
      "verbCode": "IGNORE",
      "effectCode": "DARKNESS",
      "targetId": "SELF",
      "growPoint": 0,
      "probability": 1000
    },
    "artId2": 390201503,
    "art2": {
      "artId": 390201503,
      "verbCode": "BUFF",
      "effectCode": "RESIST",
      "targetId": "SELF",
      "effectValue": 300,
      "growPoint": 25,
      "probability": 1000
    },
    "skillEffectRange": "ALL"
  },
  "description": "浜辺の木陰で座りながら、ふたりで夏の空を見上げていた＠あたりは静かで、ただ、波の音だけが聞こえていた＠彼女はひときわ大きな雲を指さして笑っていた＠白馬だとか、アイスクリームだとかに見えると言って、笑っていた",
  "illustrator": "―",
  "openDate": "2018/07/20 15:10:00",
  "__update__": "2020-11-27T10:47:19.854Z"
}