{
  "pieceId": 1283,
  "pieceType": "ABILITY",
  "pieceName": "いなくなったりはしませんよ",
  "attributeId": "ALL",
  "rank": "RANK_4",
  "attack": 761,
  "defense": 0,
  "hp": 841,
  "skillId": 128300,
  "pieceSkill": {
    "id": 128300,
    "groupId": 1085,
    "name": "スネイル・アドバンテージ[Ⅱ]",
    "type": "ABILITY",
    "shortDescription": "攻撃力UP[Ⅱ] & 確率で魅了無効[Ⅶ]",
    "artId1": 390201102,
    "art1": {
      "artId": 390201102,
      "verbCode": "BUFF",
      "effectCode": "ATTACK",
      "targetId": "SELF",
      "effectValue": 100,
      "growPoint": 25,
      "probability": 1000
    },
    "artId2": 690208307,
    "art2": {
      "artId": 690208307,
      "verbCode": "IGNORE",
      "effectCode": "CHARM",
      "targetId": "SELF",
      "growPoint": 0,
      "probability": 550
    },
    "skillEffectRange": "ALL"
  },
  "skillId2": 128301,
  "pieceSkill2": {
    "id": 128301,
    "groupId": 1085,
    "name": "スネイル・アドバンテージ[Ⅳ]",
    "type": "ABILITY",
    "shortDescription": "攻撃力UP[Ⅳ] & 必ず魅了無効",
    "artId1": 390201104,
    "art1": {
      "artId": 390201104,
      "verbCode": "BUFF",
      "effectCode": "ATTACK",
      "targetId": "SELF",
      "effectValue": 200,
      "growPoint": 25,
      "probability": 1000
    },
    "artId2": 690208300,
    "art2": {
      "artId": 690208300,
      "verbCode": "IGNORE",
      "effectCode": "CHARM",
      "targetId": "SELF",
      "growPoint": 0,
      "probability": 1000
    },
    "skillEffectRange": "ALL"
  },
  "description": "「わたしがこの町にい続けていることには、＠きっとちゃんとした意味があるのです＠その意味がわかるまでは、＠わたしはいなくなったりはしませんよ」",
  "illustrator": "―",
  "openDate": "2018/11/26 15:10:00",
  "__update__": "2020-11-27T08:08:21.864Z"
}