{
  "pieceId": 1314,
  "rank": "RANK_3",
  "__update__": "2021-01-26T13:51:11.065Z",
  "charaIds": "3900",
  "pieceName": "あの日の悔い",
  "illustrator": "―",
  "description": "あなたに渡したかったチョコレート、ここにあるんだ＠あなたに喜んでもらおうと思って用意したチョコレートが＠でも、ごめんね、もうわたし、あなたに渡せないんだ＠わたしはわたしじゃなくなるし、このチョコレートもきっと苦いし",
  "pieceSkill": {
    "art1": {
      "probability": 1000,
      "targetId": "ALL",
      "effectValue": 50,
      "effectCode": "ATTACK",
      "verbCode": "BUFF_DIE",
      "artId": 320303503,
      "growPoint": 20,
      "enableTurn": 2
    },
    "art2": {
      "probability": 1000,
      "targetId": "ALL",
      "effectValue": 100,
      "effectCode": "DEFENSE",
      "verbCode": "BUFF_DIE",
      "artId": 320303603,
      "growPoint": 20,
      "enableTurn": 2
    },
    "artId2": 320303603,
    "name": "無言の加護[Ⅲ]",
    "artId1": 320303503,
    "type": "ABILITY",
    "groupId": 1085,
    "shortDescription": "戦闘不能時に攻撃力UP[Ⅲ] & 防御力UP[Ⅲ](味全/2T)を発動",
    "id": 131400,
    "skillEffectRange": "ALL"
  },
  "hp": 420,
  "pieceSkill2": {
    "art1": {
      "probability": 1000,
      "targetId": "ALL",
      "effectValue": 63,
      "effectCode": "ATTACK",
      "verbCode": "BUFF_DIE",
      "artId": 320303504,
      "growPoint": 20,
      "enableTurn": 2
    },
    "art2": {
      "probability": 1000,
      "targetId": "ALL",
      "effectValue": 126,
      "effectCode": "DEFENSE",
      "verbCode": "BUFF_DIE",
      "artId": 320303604,
      "growPoint": 20,
      "enableTurn": 2
    },
    "artId2": 320303604,
    "name": "無言の加護[Ⅳ]",
    "artId1": 320303504,
    "type": "ABILITY",
    "groupId": 1085,
    "shortDescription": "戦闘不能時に攻撃力UP[Ⅳ] & 防御力UP[Ⅳ](味全/2T)を発動",
    "id": 131401,
    "skillEffectRange": "ALL"
  },
  "charaList": [
    {
      "charaId": 3900,
      "name": "黒"
    }
  ],
  "skillId2": 131401,
  "attack": 500,
  "defense": 0,
  "attributeId": "ALL",
  "pieceType": "ABILITY",
  "openDate": "2019/02/04 15:10:00",
  "skillId": 131400
}