{
  "pieceId": 1383,
  "rank": "RANK_4",
  "__update__": "2020-11-27T08:08:21.994Z",
  "pieceName": "今この時だけの宝物",
  "pieceType": "ABILITY",
  "attributeId": "ALL",
  "attack": 800,
  "defense": 0,
  "hp": 802,
  "skillId": 138300,
  "pieceSkill": {
    "id": 138300,
    "groupId": 1144,
    "name": "サンセット・グロウ[Ⅸ]",
    "type": "ABILITY",
    "shortDescription": "確率で幻惑無効[Ⅸ] & Blast ダメージUP[Ⅱ]",
    "artId1": 690209109,
    "art1": {
      "artId": 690209109,
      "verbCode": "IGNORE",
      "effectCode": "BLINDNESS",
      "targetId": "SELF",
      "growPoint": 0,
      "probability": 650
    },
    "artId2": 390201802,
    "art2": {
      "artId": 390201802,
      "verbCode": "BUFF",
      "effectCode": "BLAST",
      "targetId": "SELF",
      "effectValue": 200,
      "growPoint": 25,
      "probability": 1000
    },
    "skillEffectRange": "ALL"
  },
  "skillId2": 138301,
  "pieceSkill2": {
    "id": 138301,
    "groupId": 1144,
    "name": "サンセット・グロウ",
    "type": "ABILITY",
    "shortDescription": "必ず幻惑無効 & Blast ダメージUP[Ⅲ]",
    "artId1": 690209100,
    "art1": {
      "artId": 690209100,
      "verbCode": "IGNORE",
      "effectCode": "BLINDNESS",
      "targetId": "SELF",
      "growPoint": 0,
      "probability": 1000
    },
    "artId2": 390201803,
    "art2": {
      "artId": 390201803,
      "verbCode": "BUFF",
      "effectCode": "BLAST",
      "targetId": "SELF",
      "effectValue": 250,
      "growPoint": 25,
      "probability": 1000
    },
    "skillEffectRange": "ALL"
  },
  "description": "太陽の残り火は、夏の雲を茜色に染めた＠迫りくる紺青は、優しく一日を終わりへと導いていく＠髪を撫でる風は柔らかく、波が寄せて返す音は心地良い＠声もなく見惚れたその光景は、どんなものにも勝る宝物",
  "illustrator": "―",
  "openDate": "2019/07/26 15:10:00"
}