{
  "pieceId": 1390,
  "rank": "RANK_4",
  "__update__": "2020-11-27T08:08:21.952Z",
  "pieceName": "私たちだけのベストショット",
  "pieceType": "SKILL",
  "pieceKind": "EVENT",
  "attributeId": "ALL",
  "attack": 0,
  "defense": 807,
  "hp": 807,
  "skillId": 139000,
  "pieceSkill": {
    "id": 139000,
    "groupId": 1134,
    "name": "レゾナンス・ブラストアップ[Ⅰ]",
    "type": "SKILL",
    "intervalTurn": 6,
    "shortDescription": "必ず回避無効 & Blast ダメージUP[Ⅰ](味全/1T)",
    "messageId": 70,
    "artId1": 610308100,
    "art1": {
      "artId": 610308100,
      "verbCode": "IGNORE",
      "effectCode": "AVOID",
      "targetId": "ALL",
      "enableTurn": 1,
      "growPoint": 0,
      "probability": 1000
    },
    "artId2": 310301801,
    "art2": {
      "artId": 310301801,
      "verbCode": "BUFF",
      "effectCode": "BLAST",
      "targetId": "ALL",
      "effectValue": 150,
      "enableTurn": 1,
      "growPoint": 25
    },
    "skillEffectRange": "ALL"
  },
  "skillId2": 139001,
  "pieceSkill2": {
    "id": 139001,
    "groupId": 1134,
    "name": "レゾナンス・ブラストアップ[Ⅱ]",
    "type": "SKILL",
    "intervalTurn": 5,
    "shortDescription": "必ず回避無効 & Blast ダメージUP[Ⅱ](味全/1T)",
    "messageId": 70,
    "artId1": 610308100,
    "art1": {
      "artId": 610308100,
      "verbCode": "IGNORE",
      "effectCode": "AVOID",
      "targetId": "ALL",
      "enableTurn": 1,
      "growPoint": 0,
      "probability": 1000
    },
    "artId2": 310301802,
    "art2": {
      "artId": 310301802,
      "verbCode": "BUFF",
      "effectCode": "BLAST",
      "targetId": "ALL",
      "effectValue": 200,
      "enableTurn": 1,
      "growPoint": 25
    },
    "skillEffectRange": "ALL"
  },
  "description": "冊子に載るかもしれなかった、私たちの１枚。＠見返すと少し恥ずかしくて、載らなくて良かったって思っちゃう。＠きっと、私たちで持っているのがちょうど良いから。＠思い出した時に覗いてみて、クスッと笑うぐらいでいたいから。",
  "illustrator": "―",
  "openDate": "2019/08/22 00:00:00"
}