{
  "pieceId": 1433,
  "rank": "RANK_3",
  "__update__": "2020-11-27T08:08:21.957Z",
  "pieceName": "デジタル逃避行",
  "charaIds": "1029",
  "illustrator": "都筑禰己",
  "description": "喋りたくない、聞きたくない、目もみたくない＠そんな時は視線を向けて、精一杯画面の中に飛びこんで＠無心でロボットのようにキーを打ち、コードを注ぎ込んでいく＠本物のロボットが動くと、人間だったことを思い出す",
  "pieceSkill": {
    "art1": {
      "probability": 1000,
      "targetId": "SELF",
      "effectCode": "AVOID",
      "verbCode": "CONDITION_GOOD",
      "artId": 610206900,
      "growPoint": 0,
      "enableTurn": 1
    },
    "name": "パリィ",
    "artId1": 610206900,
    "type": "SKILL",
    "skillEffectRange": "ALL",
    "groupId": 1124,
    "messageId": 70,
    "shortDescription": "必ず回避(自/1T)",
    "id": 143300,
    "intervalTurn": 10
  },
  "hp": 506,
  "pieceSkill2": {
    "art1": {
      "probability": 1000,
      "targetId": "SELF",
      "effectCode": "AVOID",
      "verbCode": "CONDITION_GOOD",
      "artId": 610206900,
      "growPoint": 0,
      "enableTurn": 1
    },
    "name": "パリィ",
    "artId1": 610206900,
    "type": "SKILL",
    "skillEffectRange": "ALL",
    "groupId": 1124,
    "messageId": 70,
    "shortDescription": "必ず回避(自/1T)",
    "id": 143301,
    "intervalTurn": 8
  },
  "charaList": [
    {
      "charaId": 1029,
      "name": "宮尾 時雨"
    }
  ],
  "skillId2": 143301,
  "attack": 0,
  "defense": 426,
  "attributeId": "ALL",
  "pieceType": "SKILL",
  "openDate": "2019/12/09 15:10:00",
  "skillId": 143300
}