{
  "pieceId": 1458,
  "rank": "RANK_4",
  "__update__": "2021-01-25T09:50:36.047Z",
  "pieceType": "ABILITY",
  "pieceName": "夕暮れに甘く溶け合って",
  "attributeId": "ALL",
  "attack": 760,
  "defense": 0,
  "hp": 840,
  "skillId": 145800,
  "pieceSkill": {
    "id": 145800,
    "groupId": 1120,
    "name": "シールドストライクアデプト[Ⅱ]",
    "type": "ABILITY",
    "shortDescription": "ダメージカット状態[Ⅱ] & 確率でクリティカル[Ⅱ]",
    "artId1": 690206202,
    "art1": {
      "artId": 690206202,
      "verbCode": "CONDITION_GOOD",
      "effectCode": "DAMAGE_DOWN",
      "targetId": "SELF",
      "effectValue": 100,
      "growPoint": 25,
      "probability": 1000
    },
    "artId2": 690206302,
    "art2": {
      "artId": 690206302,
      "verbCode": "CONDITION_GOOD",
      "effectCode": "CRITICAL",
      "targetId": "SELF",
      "effectValue": 2000,
      "growPoint": 0,
      "probability": 150
    },
    "skillEffectRange": "ALL"
  },
  "skillId2": 145801,
  "pieceSkill2": {
    "id": 145801,
    "groupId": 1120,
    "name": "シールドストライクアデプト[Ⅲ]",
    "type": "ABILITY",
    "shortDescription": "ダメージカット状態[Ⅲ] & 確率でクリティカル[Ⅲ]",
    "artId1": 690206203,
    "art1": {
      "artId": 690206203,
      "verbCode": "CONDITION_GOOD",
      "effectCode": "DAMAGE_DOWN",
      "targetId": "SELF",
      "effectValue": 150,
      "growPoint": 25,
      "probability": 1000
    },
    "artId2": 690206303,
    "art2": {
      "artId": 690206303,
      "verbCode": "CONDITION_GOOD",
      "effectCode": "CRITICAL",
      "targetId": "SELF",
      "effectValue": 2000,
      "growPoint": 0,
      "probability": 200
    },
    "skillEffectRange": "ALL"
  },
  "description": "チョコレートを渡したら、あの子は少し驚いていたけれど＠しっかり受け取って、ありがとうと笑った＠あの子の笑顔は、夕暮れよりも眩しく見えた＠そんなはずはないのに、不思議ね…",
  "illustrator": "―",
  "openDate": "2020/02/07 15:10:00"
}