{
  "pieceId": 1515,
  "rank": "RANK_4",
  "__update__": "2020-07-07T12:15:08.840Z",
  "pieceName": "休憩はおいしく",
  "pieceType": "ABILITY",
  "attributeId": "ALL",
  "attack": 748,
  "defense": 0,
  "hp": 908,
  "skillId": 151500,
  "pieceSkill": {
    "id": 151500,
    "groupId": 1086,
    "name": "フルゲージ・シールド[Ⅶ]",
    "type": "ABILITY",
    "shortDescription": "HP最大時防御力UP[Ⅶ] & ダメージカット状態[Ⅲ]",
    "artId1": 390203207,
    "art1": {
      "artId": 390203207,
      "verbCode": "BUFF_HPMAX",
      "effectCode": "DEFENSE",
      "targetId": "SELF",
      "effectValue": 700,
      "growPoint": 20,
      "probability": 1000
    },
    "artId2": 690206203,
    "art2": {
      "artId": 690206203,
      "verbCode": "CONDITION_GOOD",
      "effectCode": "DAMAGE_DOWN",
      "targetId": "SELF",
      "effectValue": 150,
      "growPoint": 25,
      "probability": 1000
    },
    "skillEffectRange": "ALL"
  },
  "skillId2": 151501,
  "pieceSkill2": {
    "id": 151501,
    "groupId": 1086,
    "name": "フルゲージ・シールド[Ⅸ]",
    "type": "ABILITY",
    "shortDescription": "HP最大時防御力UP[Ⅸ] & ダメージカット状態[Ⅳ]",
    "artId1": 390203209,
    "art1": {
      "artId": 390203209,
      "verbCode": "BUFF_HPMAX",
      "effectCode": "DEFENSE",
      "targetId": "SELF",
      "effectValue": 900,
      "growPoint": 20,
      "probability": 1000
    },
    "artId2": 690206204,
    "art2": {
      "artId": 690206204,
      "verbCode": "CONDITION_GOOD",
      "effectCode": "DAMAGE_DOWN",
      "targetId": "SELF",
      "effectValue": 200,
      "growPoint": 25,
      "probability": 1000
    },
    "skillEffectRange": "ALL"
  },
  "description": "「お客さんもおらんし、ここはみんなそろって休憩にしよか」＠「では、お茶を煎れますね。お茶菓子も用意しましたので」＠「ふむー！ふっむーふむんむ！」＠「食べ過ぎたらあかんで月出里。ご飯食べれんくなるからな」",
  "illustrator": "―",
  "openDate": "2020/07/06 15:10:00"
}