{
  "pieceId": 1528,
  "rank": "RANK_3",
  "__update__": "2020-08-07T08:20:11.948Z",
  "pieceType": "SKILL",
  "pieceName": "秘密の玉手箱",
  "attributeId": "ALL",
  "charaIds": "3502",
  "charaList": [
    {
      "charaId": 3502,
      "name": "万年桜のウワサ 水着ver."
    }
  ],
  "attack": 0,
  "defense": 494,
  "hp": 454,
  "skillId": 152800,
  "pieceSkill": {
    "id": 152800,
    "groupId": 1085,
    "name": "アタックアップ・サークル[Ⅴ]",
    "type": "SKILL",
    "intervalTurn": 11,
    "shortDescription": "攻撃力UP[Ⅴ](味全/1T)",
    "messageId": 71,
    "artId1": 310301105,
    "art1": {
      "artId": 310301105,
      "verbCode": "BUFF",
      "effectCode": "ATTACK",
      "targetId": "ALL",
      "effectValue": 250,
      "enableTurn": 1,
      "growPoint": 25
    },
    "skillEffectRange": "ALL"
  },
  "skillId2": 152801,
  "pieceSkill2": {
    "id": 152801,
    "groupId": 1085,
    "name": "アタックアップ・サークル[Ⅵ]",
    "type": "SKILL",
    "intervalTurn": 10,
    "shortDescription": "攻撃力UP[Ⅵ](味全/1T)",
    "messageId": 71,
    "artId1": 310301106,
    "art1": {
      "artId": 310301106,
      "verbCode": "BUFF",
      "effectCode": "ATTACK",
      "targetId": "ALL",
      "effectValue": 300,
      "enableTurn": 1,
      "growPoint": 25
    },
    "skillEffectRange": "ALL"
  },
  "description": "どんなに楽しくて、どんなに大切なことも時間が経てば薄れてしまう…＠嬉しかったこと、心が揺れたこと、残しておきたいこと全部＠ここにしまっておくから、思い出したくなったら開けてみて＠必要になるその日まで、波間に預けておくから",
  "illustrator": "mepo",
  "openDate": "2020/08/07 15:10:00"
}