{
  "pieceId": 1553,
  "rank": "RANK_3",
  "__update__": "2020-11-27T08:08:21.933Z",
  "pieceType": "ABILITY",
  "pieceKind": "EVENT",
  "pieceName": "どうかここで終わらせて",
  "attributeId": "ALL",
  "attack": 664,
  "defense": 0,
  "hp": 544,
  "skillId": 155300,
  "pieceSkill": {
    "id": 155300,
    "groupId": 1085,
    "name": "イグノア・メズマライズ[Ⅱ]",
    "type": "ABILITY",
    "shortDescription": "攻撃力UP[Ⅱ] & 必ず幻惑無効",
    "artId1": 390201102,
    "art1": {
      "artId": 390201102,
      "verbCode": "BUFF",
      "effectCode": "ATTACK",
      "targetId": "SELF",
      "effectValue": 100,
      "growPoint": 25,
      "probability": 1000
    },
    "artId2": 690209100,
    "art2": {
      "artId": 690209100,
      "verbCode": "IGNORE",
      "effectCode": "BLINDNESS",
      "targetId": "SELF",
      "growPoint": 0,
      "probability": 1000
    },
    "eventId": 1114,
    "eventArtId1": 1114001,
    "eventArt1": {
      "artId": 1114001,
      "verbCode": "OTHER",
      "effectCode": "DROPADD",
      "effectValue": 1000,
      "genericValue": "EVENT_DAILYTOWER_1114_KEY"
    },
    "eventDescription": "＆「白紙の便箋」追加獲得数＋1",
    "skillEffectRange": "ALL"
  },
  "skillId2": 155301,
  "pieceSkill2": {
    "id": 155301,
    "groupId": 1085,
    "name": "イグノア・メズマライズ[Ⅱ]",
    "type": "ABILITY",
    "shortDescription": "攻撃力UP[Ⅱ] & 必ず幻惑無効",
    "artId1": 390201102,
    "art1": {
      "artId": 390201102,
      "verbCode": "BUFF",
      "effectCode": "ATTACK",
      "targetId": "SELF",
      "effectValue": 100,
      "growPoint": 25,
      "probability": 1000
    },
    "artId2": 690209100,
    "art2": {
      "artId": 690209100,
      "verbCode": "IGNORE",
      "effectCode": "BLINDNESS",
      "targetId": "SELF",
      "growPoint": 0,
      "probability": 1000
    },
    "eventId": 1114,
    "eventArtId1": 1114002,
    "eventArt1": {
      "artId": 1114002,
      "verbCode": "OTHER",
      "effectCode": "DROPADD",
      "effectValue": 5000,
      "genericValue": "EVENT_DAILYTOWER_1114_KEY"
    },
    "eventDescription": "＆「白紙の便箋」追加獲得数＋5",
    "skillEffectRange": "ALL"
  },
  "description": "「魔法少女になった意味が失われても＠宿命からは逃れられない…＠いつも死と隣り合わせで、戦って傷ついて…＠報われることなんて、二度とないんだ…」",
  "illustrator": "―",
  "openDate": "2020/10/12 15:10:00"
}