{
  "pieceId": 1566,
  "rank": "RANK_4",
  "__update__": "2020-11-27T08:07:25.115Z",
  "pieceType": "SKILL",
  "pieceName": "迷わず進むための光",
  "attributeId": "ALL",
  "attack": 0,
  "defense": 884,
  "hp": 724,
  "skillId": 156600,
  "pieceSkill": {
    "id": 156600,
    "groupId": 1094,
    "name": "サプレス・レジスト[Ⅱ]",
    "type": "SKILL",
    "intervalTurn": 9,
    "shortDescription": "攻撃力DOWN[Ⅱ] & 状態異常耐性DOWN[Ⅱ](敵全/3T)",
    "messageId": 72,
    "artId1": 430302002,
    "art1": {
      "artId": 430302002,
      "verbCode": "DEBUFF",
      "effectCode": "ATTACK",
      "targetId": "ALL",
      "effectValue": 175,
      "enableTurn": 3,
      "growPoint": 25
    },
    "artId2": 430302402,
    "art2": {
      "artId": 430302402,
      "verbCode": "DEBUFF",
      "effectCode": "RESIST",
      "targetId": "ALL",
      "effectValue": 75,
      "enableTurn": 3,
      "growPoint": 25
    },
    "skillEffectRange": "ALL"
  },
  "skillId2": 156601,
  "pieceSkill2": {
    "id": 156601,
    "groupId": 1094,
    "name": "サプレス・レジスト[Ⅱ]",
    "type": "SKILL",
    "intervalTurn": 9,
    "shortDescription": "攻撃力DOWN[Ⅱ] & 状態異常耐性DOWN[Ⅱ](敵全/3T)",
    "messageId": 72,
    "artId1": 430302002,
    "art1": {
      "artId": 430302002,
      "verbCode": "DEBUFF",
      "effectCode": "ATTACK",
      "targetId": "ALL",
      "effectValue": 175,
      "enableTurn": 3,
      "growPoint": 25
    },
    "artId2": 430302402,
    "art2": {
      "artId": 430302402,
      "verbCode": "DEBUFF",
      "effectCode": "RESIST",
      "targetId": "ALL",
      "effectValue": 75,
      "enableTurn": 3,
      "growPoint": 25
    },
    "skillEffectRange": "ALL"
  },
  "description": "さよならは足音を立てて近づいてきて、振り返れば腕を引かれてしまう＠たとえ向かう先が暗闇だとしても、前を向いて進めば平気＠その先に、きっと大切なみんなの笑顔があるから＠それさえ見失わなければ、私はもう迷わずに歩いて行ける",
  "illustrator": "―",
  "openDate": "2020/11/27 15:10:00"
}