{
  "pieceId": 1567,
  "rank": "RANK_3",
  "__update__": "2020-12-31T15:01:10.194Z",
  "pieceType": "SKILL",
  "pieceName": "万々歳マジカルオカモチBOX",
  "attributeId": "ALL",
  "charaIds": "1203",
  "charaList": [
    {
      "charaId": 1203,
      "name": "鶴乃・フェリシア 宅配ver."
    }
  ],
  "attack": 0,
  "defense": 513,
  "hp": 433,
  "skillId": 156700,
  "pieceSkill": {
    "id": 156700,
    "groupId": 1088,
    "name": "マギアアップ[Ⅷ]",
    "type": "SKILL",
    "intervalTurn": 7,
    "shortDescription": "マギアダメージUP[Ⅷ](自/1T)",
    "messageId": 70,
    "artId1": 310201408,
    "art1": {
      "artId": 310201408,
      "verbCode": "BUFF",
      "effectCode": "MAGIA",
      "targetId": "SELF",
      "effectValue": 225,
      "enableTurn": 1,
      "growPoint": 25
    },
    "skillEffectRange": "ALL"
  },
  "skillId2": 156701,
  "pieceSkill2": {
    "id": 156701,
    "groupId": 1088,
    "name": "マギアアップ[Ⅸ]",
    "type": "SKILL",
    "intervalTurn": 6,
    "shortDescription": "マギアダメージUP[Ⅸ](自/1T)",
    "messageId": 70,
    "artId1": 310201409,
    "art1": {
      "artId": 310201409,
      "verbCode": "BUFF",
      "effectCode": "MAGIA",
      "targetId": "SELF",
      "effectValue": 250,
      "enableTurn": 1,
      "growPoint": 25
    },
    "skillEffectRange": "ALL"
  },
  "description": "鬼が出るか蛇が出るか、開けてみるまでわからない＠笑顔を運ぶトナカイサンタの、特製マジカルオカモチBOX＠膝をかかえたあの子も、涙にくれるその子も＠最後はみんなニコニコ笑う、“笑顔”の魔法が詰まってる",
  "illustrator": "秘鷺悠弥",
  "openDate": "2020/12/04 16:10:00"
}