{
  "pieceId": 1584,
  "rank": "RANK_4",
  "__update__": "2020-12-31T17:36:02.848Z",
  "pieceName": "いつまでもこのまま",
  "pieceType": "ABILITY",
  "attributeId": "ALL",
  "attack": 820,
  "defense": 0,
  "hp": 820,
  "skillId": 158400,
  "pieceSkill": {
    "id": 158400,
    "groupId": 1141,
    "name": "ファントム・スピリット[Ⅱ]",
    "type": "ABILITY",
    "shortDescription": "必ず呪い無効 & 必ず暗闇無効 & Blast ダメージUP[Ⅱ]",
    "artId1": 690208800,
    "art1": {
      "artId": 690208800,
      "verbCode": "IGNORE",
      "effectCode": "CURSE",
      "targetId": "SELF",
      "growPoint": 0,
      "probability": 1000
    },
    "artId2": 690209000,
    "art2": {
      "artId": 690209000,
      "verbCode": "IGNORE",
      "effectCode": "DARKNESS",
      "targetId": "SELF",
      "growPoint": 0,
      "probability": 1000
    },
    "artId3": 390201802,
    "art3": {
      "artId": 390201802,
      "verbCode": "BUFF",
      "effectCode": "BLAST",
      "targetId": "SELF",
      "effectValue": 200,
      "growPoint": 25,
      "probability": 1000
    },
    "skillEffectRange": "ALL"
  },
  "skillId2": 158401,
  "pieceSkill2": {
    "id": 158401,
    "groupId": 1141,
    "name": "ファントム・スピリット[Ⅱ]",
    "type": "ABILITY",
    "shortDescription": "必ず呪い無効 & 必ず暗闇無効 & Blast ダメージUP[Ⅱ]",
    "artId1": 690208800,
    "art1": {
      "artId": 690208800,
      "verbCode": "IGNORE",
      "effectCode": "CURSE",
      "targetId": "SELF",
      "growPoint": 0,
      "probability": 1000
    },
    "artId2": 690209000,
    "art2": {
      "artId": 690209000,
      "verbCode": "IGNORE",
      "effectCode": "DARKNESS",
      "targetId": "SELF",
      "growPoint": 0,
      "probability": 1000
    },
    "artId3": 390201802,
    "art3": {
      "artId": 390201802,
      "verbCode": "BUFF",
      "effectCode": "BLAST",
      "targetId": "SELF",
      "effectValue": 200,
      "growPoint": 25,
      "probability": 1000
    },
    "skillEffectRange": "ALL"
  },
  "description": "優しくて暖かくて心地のいい、血のかよったゆりかごの中＠それはまるで寒い冬に訪れた恵の果報＠だけどこれは挑戦状、初夢という名の挑戦状＠優しくて暖かくて心地のいい、最凶の罠",
  "illustrator": "―",
  "openDate": "2021/01/01 00:00:00"
}