{
  "pieceId": 1585,
  "rank": "RANK_4",
  "__update__": "2020-12-31T15:49:54.017Z",
  "pieceType": "SKILL",
  "pieceKind": "EVENT",
  "pieceName": "いつのまにここまで",
  "attributeId": "ALL",
  "attack": 0,
  "defense": 819,
  "hp": 819,
  "skillId": 158500,
  "pieceSkill": {
    "id": 158500,
    "groupId": 1093,
    "name": "ディリジェンス・ライズ[Ⅳ]",
    "type": "SKILL",
    "intervalTurn": 6,
    "shortDescription": "MP獲得量UP[Ⅳ] & 防御力UP[Ⅲ](自/3T)",
    "messageId": 70,
    "artId1": 330201904,
    "art1": {
      "artId": 330201904,
      "verbCode": "BUFF",
      "effectCode": "MP_GAIN",
      "targetId": "SELF",
      "effectValue": 125,
      "enableTurn": 3,
      "growPoint": 25
    },
    "artId2": 330201203,
    "art2": {
      "artId": 330201203,
      "verbCode": "BUFF",
      "effectCode": "DEFENSE",
      "targetId": "SELF",
      "effectValue": 225,
      "enableTurn": 3,
      "growPoint": 25
    },
    "eventId": 1121,
    "eventArtId1": 1121001,
    "eventArt1": {
      "artId": 1121001,
      "verbCode": "OTHER",
      "effectCode": "DROPADD",
      "effectValue": 1000,
      "genericValue": "EVENT_DAILYTOWER_1121_KEY"
    },
    "eventDescription": "＆「大凧」追加獲得数＋1",
    "skillEffectRange": "ALL"
  },
  "skillId2": 158501,
  "pieceSkill2": {
    "id": 158501,
    "groupId": 1093,
    "name": "ディリジェンス・ライズ[Ⅳ]",
    "type": "SKILL",
    "intervalTurn": 6,
    "shortDescription": "MP獲得量UP[Ⅳ] & 防御力UP[Ⅲ](自/3T)",
    "messageId": 70,
    "artId1": 330201904,
    "art1": {
      "artId": 330201904,
      "verbCode": "BUFF",
      "effectCode": "MP_GAIN",
      "targetId": "SELF",
      "effectValue": 125,
      "enableTurn": 3,
      "growPoint": 25
    },
    "artId2": 330201203,
    "art2": {
      "artId": 330201203,
      "verbCode": "BUFF",
      "effectCode": "DEFENSE",
      "targetId": "SELF",
      "effectValue": 225,
      "enableTurn": 3,
      "growPoint": 25
    },
    "eventId": 1121,
    "eventArtId1": 1121002,
    "eventArt1": {
      "artId": 1121002,
      "verbCode": "OTHER",
      "effectCode": "DROPADD",
      "effectValue": 5000,
      "genericValue": "EVENT_DAILYTOWER_1121_KEY"
    },
    "eventDescription": "＆「大凧」追加獲得数＋5",
    "skillEffectRange": "ALL"
  },
  "description": "「まさかういに抱っこされる日がくるなんてね…」＠「えへへ、どう？恥ずかしい？もしかして、イヤ…？」＠「ううん、そんなことない。嬉しくて泣きそうだよ。泣いていい？」＠「さすがに泣きながら抱っこされるのは赤ちゃんすぎるような…」",
  "illustrator": "―",
  "openDate": "2021/01/01 00:00:00"
}