{
  "pieceId": 1616,
  "rank": "RANK_4",
  "__update__": "2021-04-14T14:33:14.997Z",
  "pieceName": "手を振れる幸せ",
  "pieceType": "ABILITY",
  "attributeId": "ALL",
  "attack": 845,
  "defense": 0,
  "hp": 845,
  "skillId": 161600,
  "pieceSkill": {
    "id": 161600,
    "groupId": 1086,
    "name": "ソリッド・アデプト[Ⅴ]",
    "type": "ABILITY",
    "shortDescription": "防御力UP[Ⅴ] & 状態異常耐性UP[Ⅲ]",
    "artId1": 390201205,
    "art1": {
      "artId": 390201205,
      "verbCode": "BUFF",
      "effectCode": "DEFENSE",
      "targetId": "SELF",
      "effectValue": 375,
      "growPoint": 25,
      "probability": 1000
    },
    "artId2": 390201503,
    "art2": {
      "artId": 390201503,
      "verbCode": "BUFF",
      "effectCode": "RESIST",
      "targetId": "SELF",
      "effectValue": 300,
      "growPoint": 25,
      "probability": 1000
    },
    "skillEffectRange": "ALL"
  },
  "skillId2": 161601,
  "pieceSkill2": {
    "id": 161601,
    "groupId": 1086,
    "name": "ソリッド・アデプト[Ⅵ]",
    "type": "ABILITY",
    "shortDescription": "防御力UP[Ⅵ] & 状態異常耐性UP[Ⅳ]",
    "artId1": 390201206,
    "art1": {
      "artId": 390201206,
      "verbCode": "BUFF",
      "effectCode": "DEFENSE",
      "targetId": "SELF",
      "effectValue": 450,
      "growPoint": 25,
      "probability": 1000
    },
    "artId2": 390201504,
    "art2": {
      "artId": 390201504,
      "verbCode": "BUFF",
      "effectCode": "RESIST",
      "targetId": "SELF",
      "effectValue": 350,
      "growPoint": 25,
      "probability": 1000
    },
    "skillEffectRange": "ALL"
  },
  "description": "「こうしてパパに“おかえり”って手を振れるのはうれしいけど＠また“いってらっしゃい”って手を振る時が来ると思うと怖いんです＠長い旅で何が起きるかわからないから。だから見送る時はいつも＠たっぷり祈りを込めて、無事に帰って来るのを願ってます」",
  "illustrator": "―",
  "openDate": "2021/04/14 15:10:00"
}