{
  "pieceId": 1705,
  "rank": "RANK_3",
  "__update__": "2021-12-20T08:23:33.263Z",
  "pieceName": "ベファーナの贈り物",
  "pieceType": "SKILL",
  "attributeId": "ALL",
  "charaIds": "1137",
  "charaList": [
    {
      "charaId": 1137,
      "name": "那由他・みかげ クリスマスver."
    }
  ],
  "attack": 0,
  "defense": 440,
  "hp": 520,
  "skillId": 170500,
  "pieceSkill": {
    "id": 170500,
    "groupId": 1166,
    "name": "アクセルドロー",
    "type": "SKILL",
    "intervalTurn": 5,
    "shortDescription": "Acceleドロー",
    "messageId": 70,
    "artId1": 700211800,
    "art1": {
      "artId": 700211800,
      "verbCode": "DRAW",
      "effectCode": "ACCEL",
      "targetId": "SELF",
      "growPoint": 0,
      "probability": 1000
    },
    "skillEffectRange": "ALL"
  },
  "skillId2": 170501,
  "pieceSkill2": {
    "id": 170501,
    "groupId": 1166,
    "name": "アクセルドロー",
    "type": "SKILL",
    "intervalTurn": 4,
    "shortDescription": "Acceleドロー",
    "messageId": 70,
    "artId1": 700211800,
    "art1": {
      "artId": 700211800,
      "verbCode": "DRAW",
      "effectCode": "ACCEL",
      "targetId": "SELF",
      "growPoint": 0,
      "probability": 1000
    },
    "skillEffectRange": "ALL"
  },
  "description": "クリスマスを告げる、色とりどりのプレゼント＠その日届いた、こだわりの手作りお菓子は＠目的不明、差出人不明の不明づくし＠「甘い１日にはなりそうもありませんの…」",
  "illustrator": "都筑禰己",
  "openDate": "2021/12/20 15:10:00"
}