{
  "pieceId": 1719,
  "rank": "RANK_4",
  "__update__": "2022-01-11T07:17:40.250Z",
  "pieceType": "ABILITY",
  "pieceName": "生き残りたいと願ったのは",
  "attributeId": "ALL",
  "attack": 938,
  "defense": 0,
  "hp": 818,
  "skillId": 171900,
  "pieceSkill": {
    "id": 171900,
    "groupId": 1092,
    "name": "ソルジャーハート[Ⅵ]",
    "type": "ABILITY",
    "shortDescription": "Blast ダメージUP[Ⅵ] & ダメージカット状態[Ⅲ]",
    "artId1": 390201806,
    "art1": {
      "artId": 390201806,
      "verbCode": "BUFF",
      "effectCode": "BLAST",
      "targetId": "SELF",
      "effectValue": 400,
      "growPoint": 25,
      "probability": 1000
    },
    "artId2": 690206203,
    "art2": {
      "artId": 690206203,
      "verbCode": "CONDITION_GOOD",
      "effectCode": "DAMAGE_DOWN",
      "targetId": "SELF",
      "effectValue": 150,
      "growPoint": 25,
      "probability": 1000
    },
    "skillEffectRange": "ALL"
  },
  "skillId2": 171901,
  "pieceSkill2": {
    "id": 171901,
    "groupId": 1092,
    "name": "ソルジャーハート[Ⅶ]",
    "type": "ABILITY",
    "shortDescription": "Blast ダメージUP[Ⅶ] & ダメージカット状態[Ⅳ]",
    "artId1": 390201807,
    "art1": {
      "artId": 390201807,
      "verbCode": "BUFF",
      "effectCode": "BLAST",
      "targetId": "SELF",
      "effectValue": 450,
      "growPoint": 25,
      "probability": 1000
    },
    "artId2": 690206204,
    "art2": {
      "artId": 690206204,
      "verbCode": "CONDITION_GOOD",
      "effectCode": "DAMAGE_DOWN",
      "targetId": "SELF",
      "effectValue": 200,
      "growPoint": 25,
      "probability": 1000
    },
    "skillEffectRange": "ALL"
  },
  "description": "生き残りたいと願ったのは、誰かを蹴落とすためじゃなく＠リーダーとして強くなって、みんなを守りたかったから＠それなのに私の願いは、私の周りを養分にして私を生かそうとする＠私はそんなこと望んでいないのに、ただみんなといたかっただけなのに",
  "illustrator": "―",
  "openDate": "2022/01/11 15:10:00"
}