{
  "pieceId": 1742,
  "rank": "RANK_3",
  "__update__": "2022-03-28T07:07:53.066Z",
  "pieceName": "重すぎる代償",
  "pieceType": "SKILL",
  "attributeId": "ALL",
  "attack": 0,
  "defense": 648,
  "hp": 708,
  "skillId": 174200,
  "pieceSkill": {
    "id": 174200,
    "groupId": 1098,
    "name": "レジストブレイク[Ⅱ]",
    "type": "SKILL",
    "intervalTurn": 6,
    "shortDescription": "状態異常耐性DOWN[Ⅱ](敵単/3T)",
    "messageId": 72,
    "artId1": 430002402,
    "art1": {
      "artId": 430002402,
      "verbCode": "DEBUFF",
      "effectCode": "RESIST",
      "targetId": "TARGET",
      "effectValue": 75,
      "enableTurn": 3,
      "growPoint": 25
    },
    "skillEffectRange": "ALL"
  },
  "skillId2": 174201,
  "pieceSkill2": {
    "id": 174201,
    "groupId": 1098,
    "name": "レジストブレイク[Ⅲ]",
    "type": "SKILL",
    "intervalTurn": 5,
    "shortDescription": "状態異常耐性DOWN[Ⅲ](敵単/3T)",
    "messageId": 72,
    "artId1": 430002403,
    "art1": {
      "artId": 430002403,
      "verbCode": "DEBUFF",
      "effectCode": "RESIST",
      "targetId": "TARGET",
      "effectValue": 100,
      "enableTurn": 3,
      "growPoint": 25
    },
    "skillEffectRange": "ALL"
  },
  "description": "魔法少女は、魔女から人を守るのが役目＠魔法少女は、魔法少女同士助け会うのが常識＠だけど私は、こんなことは望んでいなかった＠ねえ、誰か教えてよ。私はいつまで続ければいいの？",
  "illustrator": "―",
  "openDate": "2022/03/28 15:10:00"
}