{
  "pieceId": 1750,
  "rank": "RANK_3",
  "__update__": "2022-04-08T07:18:15.217Z",
  "pieceType": "ABILITY",
  "pieceKind": "EVENT",
  "pieceName": "史上最強のメモリア（自称）",
  "attributeId": "ALL",
  "attack": 613,
  "defense": 0,
  "hp": 613,
  "skillId": 175000,
  "pieceSkill": {
    "id": 175000,
    "groupId": 1085,
    "name": "史上最強のメモリア（自称）",
    "type": "ABILITY",
    "shortDescription": "攻撃力UP[8] & 防御力UP[8] & 状態異常耐性UP[8] & 確率で回避[8]",
    "artId1": 9694,
    "art1": {
      "artId": 9694,
      "verbCode": "BUFF",
      "effectCode": "ATTACK",
      "targetId": "SELF",
      "effectValue": 80,
      "growPoint": 0,
      "probability": 1000
    },
    "artId2": 9695,
    "art2": {
      "artId": 9695,
      "verbCode": "BUFF",
      "effectCode": "DEFENSE",
      "targetId": "SELF",
      "effectValue": 80,
      "growPoint": 0,
      "probability": 1000
    },
    "artId3": 9696,
    "art3": {
      "artId": 9696,
      "verbCode": "BUFF",
      "effectCode": "RESIST",
      "targetId": "SELF",
      "effectValue": 80,
      "growPoint": 0,
      "probability": 1000
    },
    "artId4": 9697,
    "art4": {
      "artId": 9697,
      "verbCode": "CONDITION_GOOD",
      "effectCode": "AVOID",
      "targetId": "SELF",
      "growPoint": 0,
      "probability": 80
    },
    "eventId": 1161,
    "eventArtId1": 1161001,
    "eventArt1": {
      "artId": 1161001,
      "verbCode": "OTHER",
      "effectCode": "DROPADD",
      "effectValue": 1000,
      "genericValue": "EVENT_DAILYTOWER_1161_KEY"
    },
    "eventDescription": "＆「ハワイ行のチケット」追加獲得数＋1",
    "skillEffectRange": "ALL"
  },
  "skillId2": 175001,
  "pieceSkill2": {
    "id": 175001,
    "groupId": 1085,
    "name": "史上最強のメモリア（自称）",
    "type": "ABILITY",
    "shortDescription": "攻撃力UP[8] & 防御力UP[8] & 状態異常耐性UP[8] & 確率で回避[8]",
    "artId1": 9694,
    "art1": {
      "artId": 9694,
      "verbCode": "BUFF",
      "effectCode": "ATTACK",
      "targetId": "SELF",
      "effectValue": 80,
      "growPoint": 0,
      "probability": 1000
    },
    "artId2": 9695,
    "art2": {
      "artId": 9695,
      "verbCode": "BUFF",
      "effectCode": "DEFENSE",
      "targetId": "SELF",
      "effectValue": 80,
      "growPoint": 0,
      "probability": 1000
    },
    "artId3": 9696,
    "art3": {
      "artId": 9696,
      "verbCode": "BUFF",
      "effectCode": "RESIST",
      "targetId": "SELF",
      "effectValue": 80,
      "growPoint": 0,
      "probability": 1000
    },
    "artId4": 9697,
    "art4": {
      "artId": 9697,
      "verbCode": "CONDITION_GOOD",
      "effectCode": "AVOID",
      "targetId": "SELF",
      "growPoint": 0,
      "probability": 80
    },
    "eventId": 1161,
    "eventArtId1": 1161002,
    "eventArt1": {
      "artId": 1161002,
      "verbCode": "OTHER",
      "effectCode": "DROPADD",
      "effectValue": 5000,
      "genericValue": "EVENT_DAILYTOWER_1161_KEY"
    },
    "eventDescription": "＆「ハワイ行のチケット」追加獲得数＋5",
    "skillEffectRange": "ALL"
  },
  "description": "「アロハ～、どう？ハワイ要素てんこもりのまどか先輩だよ～＠マギレコ史上最強の派手メモリアの自信があるよ＠目がチカチカする？まぁ、わたしも人気アニメの主人公だから＠溢れ出るオーラは隠せないよね～…あ、そういう話じゃない？」",
  "illustrator": "PAPA",
  "openDate": "2022/04/08 15:10:00"
}