{
  "pieceId": 1757,
  "pieceName": "水底に沈む涙",
  "rank": "RANK_3",
  "__update__": "2022-07-03T15:12:25.879Z",
  "pieceType": "SKILL",
  "attributeId": "ALL",
  "attack": 0,
  "defense": 618,
  "hp": 738,
  "skillId": 175700,
  "pieceSkill": {
    "id": 175700,
    "groupId": 1109,
    "name": "アトリションフォッグ[Ⅳ]",
    "type": "SKILL",
    "intervalTurn": 5,
    "shortDescription": "必ず霧 & 防御力DOWN[Ⅳ](敵単/1T)",
    "messageId": 72,
    "artId1": 510005200,
    "art1": {
      "artId": 510005200,
      "verbCode": "CONDITION_BAD",
      "effectCode": "FOG",
      "targetId": "TARGET",
      "effectValue": 250,
      "enableTurn": 1,
      "growPoint": 0,
      "probability": 1000
    },
    "artId2": 410002104,
    "art2": {
      "artId": 410002104,
      "verbCode": "DEBUFF",
      "effectCode": "DEFENSE",
      "targetId": "TARGET",
      "effectValue": 200,
      "enableTurn": 1,
      "growPoint": 25
    },
    "skillEffectRange": "ALL"
  },
  "skillId2": 175701,
  "pieceSkill2": {
    "id": 175701,
    "groupId": 1109,
    "name": "アトリションフォッグ[Ⅴ]",
    "type": "SKILL",
    "intervalTurn": 4,
    "shortDescription": "必ず霧 & 防御力DOWN[Ⅴ](敵単/1T)",
    "messageId": 72,
    "artId1": 510005200,
    "art1": {
      "artId": 510005200,
      "verbCode": "CONDITION_BAD",
      "effectCode": "FOG",
      "targetId": "TARGET",
      "effectValue": 250,
      "enableTurn": 1,
      "growPoint": 0,
      "probability": 1000
    },
    "artId2": 410002105,
    "art2": {
      "artId": 410002105,
      "verbCode": "DEBUFF",
      "effectCode": "DEFENSE",
      "targetId": "TARGET",
      "effectValue": 250,
      "enableTurn": 1,
      "growPoint": 25
    },
    "skillEffectRange": "ALL"
  },
  "description": "描いた夢、抱いた希望、親友との日々…＠ふたりで築いた宝物は涙に溶けて消えてゆく＠いつかは取り戻せるなんて、どうして勘違いしたのだろう＠失った原因は自分自身だって気づきもしないで…",
  "illustrator": "―",
  "openDate": "2022/04/28 15:10:00"
}