{
  "pieceId": 1766,
  "rank": "RANK_4",
  "__update__": "2022-05-23T08:11:08.774Z",
  "pieceType": "SKILL",
  "pieceName": "私チャンの彼ピ",
  "attributeId": "ALL",
  "attack": 0,
  "defense": 859,
  "hp": 939,
  "skillId": 176600,
  "pieceSkill": {
    "id": 176600,
    "groupId": 1085,
    "name": "オーラライズ[Ⅴ]",
    "type": "SKILL",
    "intervalTurn": 8,
    "shortDescription": "攻撃力UP[Ⅴ] & ダメージカット状態[Ⅴ](自/3T)",
    "messageId": 70,
    "artId1": 330201105,
    "art1": {
      "artId": 330201105,
      "verbCode": "BUFF",
      "effectCode": "ATTACK",
      "targetId": "SELF",
      "effectValue": 250,
      "enableTurn": 3,
      "growPoint": 25
    },
    "artId2": 630206205,
    "art2": {
      "artId": 630206205,
      "verbCode": "CONDITION_GOOD",
      "effectCode": "DAMAGE_DOWN",
      "targetId": "SELF",
      "effectValue": 250,
      "enableTurn": 3,
      "growPoint": 25,
      "probability": 1000
    },
    "skillEffectRange": "ALL"
  },
  "skillId2": 176601,
  "pieceSkill2": {
    "id": 176601,
    "groupId": 1085,
    "name": "オーラライズ[Ⅵ]",
    "type": "SKILL",
    "intervalTurn": 7,
    "shortDescription": "攻撃力UP[Ⅵ] & ダメージカット状態[Ⅵ](自/3T)",
    "messageId": 70,
    "artId1": 330201106,
    "art1": {
      "artId": 330201106,
      "verbCode": "BUFF",
      "effectCode": "ATTACK",
      "targetId": "SELF",
      "effectValue": 300,
      "enableTurn": 3,
      "growPoint": 25
    },
    "artId2": 630206206,
    "art2": {
      "artId": 630206206,
      "verbCode": "CONDITION_GOOD",
      "effectCode": "DAMAGE_DOWN",
      "targetId": "SELF",
      "effectValue": 300,
      "enableTurn": 3,
      "growPoint": 25,
      "probability": 1000
    },
    "skillEffectRange": "ALL"
  },
  "description": "「はいヒコ君、こっち向いて！」＠「え…その画面、どうなってるの!?耳とかヒゲとか…」＠「彼ピとの写真なんだから可愛くキメておきたいじゃん？＠だから写真アプリで盛って撮るの！ほらほら笑って★」",
  "illustrator": "―",
  "openDate": "2022/05/23 15:10:00"
}