{
  "pieceId": 1775,
  "rank": "RANK_3",
  "__update__": "2022-06-09T07:51:38.605Z",
  "pieceType": "ABILITY",
  "pieceName": "ウサギさん当番の日",
  "attributeId": "ALL",
  "attack": 679,
  "defense": 0,
  "hp": 649,
  "skillId": 177500,
  "pieceSkill": {
    "id": 177500,
    "groupId": 1085,
    "name": "スマッシュ・アデプト[Ⅰ]",
    "type": "ABILITY",
    "shortDescription": "攻撃力UP[Ⅰ] & Blast ダメージUP[Ⅰ]",
    "artId1": 390201101,
    "art1": {
      "artId": 390201101,
      "verbCode": "BUFF",
      "effectCode": "ATTACK",
      "targetId": "SELF",
      "effectValue": 50,
      "growPoint": 25,
      "probability": 1000
    },
    "artId2": 390201801,
    "art2": {
      "artId": 390201801,
      "verbCode": "BUFF",
      "effectCode": "BLAST",
      "targetId": "SELF",
      "effectValue": 150,
      "growPoint": 25,
      "probability": 1000
    },
    "skillEffectRange": "ALL"
  },
  "skillId2": 177501,
  "pieceSkill2": {
    "id": 177501,
    "groupId": 1085,
    "name": "スマッシュ・アデプト[Ⅱ]",
    "type": "ABILITY",
    "shortDescription": "攻撃力UP[Ⅱ] & Blast ダメージUP[Ⅱ]",
    "artId1": 390201102,
    "art1": {
      "artId": 390201102,
      "verbCode": "BUFF",
      "effectCode": "ATTACK",
      "targetId": "SELF",
      "effectValue": 100,
      "growPoint": 25,
      "probability": 1000
    },
    "artId2": 390201802,
    "art2": {
      "artId": 390201802,
      "verbCode": "BUFF",
      "effectCode": "BLAST",
      "targetId": "SELF",
      "effectValue": 200,
      "growPoint": 25,
      "probability": 1000
    },
    "skillEffectRange": "ALL"
  },
  "description": "「今日もいっぱいお野菜を持ってきたのよ＠たくさん食べて、たくさん遊ぼうね！」＠大人しく抱っこされるウサギさんはちゃんと知っている＠おいしいご飯には愛情がぎゅっと詰まっていることを",
  "illustrator": "―",
  "openDate": "2022/06/09 15:10:00"
}