{
  "pieceId": 1777,
  "rank": "RANK_3",
  "__update__": "2022-06-09T07:46:30.121Z",
  "pieceType": "ABILITY",
  "pieceKind": "EVENT",
  "pieceName": "ただいま敵情視察中",
  "attributeId": "ALL",
  "attack": 643,
  "defense": 0,
  "hp": 583,
  "skillId": 177700,
  "pieceSkill": {
    "id": 177700,
    "groupId": 1085,
    "name": "スラスト・アデプト[Ⅲ]",
    "type": "ABILITY",
    "shortDescription": "攻撃力UP[Ⅲ] & Accele MPUP[Ⅳ]",
    "artId1": 390201103,
    "art1": {
      "artId": 390201103,
      "verbCode": "BUFF",
      "effectCode": "ATTACK",
      "targetId": "SELF",
      "effectValue": 150,
      "growPoint": 25,
      "probability": 1000
    },
    "artId2": 390201604,
    "art2": {
      "artId": 390201604,
      "verbCode": "BUFF",
      "effectCode": "ACCEL",
      "targetId": "SELF",
      "effectValue": 175,
      "growPoint": 25,
      "probability": 1000
    },
    "eventId": 1167,
    "eventArtId1": 1167001,
    "eventArt1": {
      "artId": 1167001,
      "verbCode": "OTHER",
      "effectCode": "DROPADD",
      "effectValue": 1000,
      "genericValue": "EVENT_DAILYTOWER_1167_KEY"
    },
    "eventDescription": "＆「お見合い写真」追加獲得数＋1",
    "skillEffectRange": "ALL"
  },
  "skillId2": 177701,
  "pieceSkill2": {
    "id": 177701,
    "groupId": 1085,
    "name": "スラスト・アデプト[Ⅲ]",
    "type": "ABILITY",
    "shortDescription": "攻撃力UP[Ⅲ] & Accele MPUP[Ⅳ]",
    "artId1": 390201103,
    "art1": {
      "artId": 390201103,
      "verbCode": "BUFF",
      "effectCode": "ATTACK",
      "targetId": "SELF",
      "effectValue": 150,
      "growPoint": 25,
      "probability": 1000
    },
    "artId2": 390201604,
    "art2": {
      "artId": 390201604,
      "verbCode": "BUFF",
      "effectCode": "ACCEL",
      "targetId": "SELF",
      "effectValue": 175,
      "growPoint": 25,
      "probability": 1000
    },
    "eventId": 1167,
    "eventArtId1": 1167002,
    "eventArt1": {
      "artId": 1167002,
      "verbCode": "OTHER",
      "effectCode": "DROPADD",
      "effectValue": 5000,
      "genericValue": "EVENT_DAILYTOWER_1167_KEY"
    },
    "eventDescription": "＆「お見合い写真」追加獲得数＋5",
    "skillEffectRange": "ALL"
  },
  "description": "「陽斗お兄さんの許嫁はどこ…？まだ出てこないのかしら？」＠「…ねぇ～…私に隠れても意味ないと思うよぉ～…？」＠「いいから動かないで！見つかっちゃうでしょ＠絶対にこの目で見届けるんだから…！」",
  "illustrator": "―",
  "openDate": "2022/06/09 15:10:00"
}