{
  "pieceId": 1789,
  "rank": "RANK_4",
  "__update__": "2022-07-29T08:12:37.246Z",
  "pieceType": "ABILITY",
  "pieceKind": "EVENT",
  "pieceName": "にぎやかな潮騒",
  "attributeId": "ALL",
  "attack": 939,
  "defense": 0,
  "hp": 819,
  "skillId": 178900,
  "pieceSkill": {
    "id": 178900,
    "groupId": 1120,
    "name": "モラールシールド・アデプト[Ⅴ]",
    "type": "ABILITY",
    "shortDescription": "ダメージカット状態[Ⅴ] & MP獲得量UP[Ⅲ]",
    "artId1": 690206205,
    "art1": {
      "artId": 690206205,
      "verbCode": "CONDITION_GOOD",
      "effectCode": "DAMAGE_DOWN",
      "targetId": "SELF",
      "effectValue": 250,
      "growPoint": 25,
      "probability": 1000
    },
    "artId2": 390201903,
    "art2": {
      "artId": 390201903,
      "verbCode": "BUFF",
      "effectCode": "MP_GAIN",
      "targetId": "SELF",
      "effectValue": 100,
      "growPoint": 25,
      "probability": 1000
    },
    "eventId": 1170,
    "eventArtId1": 1170003,
    "eventArt1": {
      "artId": 1170003,
      "verbCode": "OTHER",
      "effectCode": "DROPADD",
      "effectValue": 5000,
      "genericValue": "EVENT_BRANCH_1170_PART_1"
    },
    "eventArtId2": 1170007,
    "eventArt2": {
      "artId": 1170007,
      "verbCode": "OTHER",
      "effectCode": "DROPADD",
      "effectValue": 5000,
      "genericValue": "EVENT_BRANCH_1170_PART_2"
    },
    "eventDescription": "＆「SUPパドル・ボード」「水鉄砲」追加獲得数＋5",
    "skillEffectRange": "ALL"
  },
  "skillId2": 178901,
  "pieceSkill2": {
    "id": 178901,
    "groupId": 1120,
    "name": "モラールシールド・アデプト[Ⅵ]",
    "type": "ABILITY",
    "shortDescription": "ダメージカット状態[Ⅵ] & MP獲得量UP[Ⅳ]",
    "artId1": 690206206,
    "art1": {
      "artId": 690206206,
      "verbCode": "CONDITION_GOOD",
      "effectCode": "DAMAGE_DOWN",
      "targetId": "SELF",
      "effectValue": 300,
      "growPoint": 25,
      "probability": 1000
    },
    "artId2": 390201904,
    "art2": {
      "artId": 390201904,
      "verbCode": "BUFF",
      "effectCode": "MP_GAIN",
      "targetId": "SELF",
      "effectValue": 125,
      "growPoint": 25,
      "probability": 1000
    },
    "eventId": 1170,
    "eventArtId1": 1170004,
    "eventArt1": {
      "artId": 1170004,
      "verbCode": "OTHER",
      "effectCode": "DROPADD",
      "effectValue": 15000,
      "genericValue": "EVENT_BRANCH_1170_PART_1"
    },
    "eventArtId2": 1170008,
    "eventArt2": {
      "artId": 1170008,
      "verbCode": "OTHER",
      "effectCode": "DROPADD",
      "effectValue": 15000,
      "genericValue": "EVENT_BRANCH_1170_PART_2"
    },
    "eventDescription": "＆「SUPパドル・ボード」「水鉄砲」追加獲得数＋15",
    "skillEffectRange": "ALL"
  },
  "description": "あれがしたい、これがしたい＠両脇から押し寄せるリクエストの波に口を挟む隙はない＠板挟みにされた私は、されるがままにゆらゆら揺られ＠ひそかな困惑の呟きも、さらわれて泡に溶けていく",
  "illustrator": "―",
  "openDate": "2022/07/29 15:10:00"
}