{
  "pieceId": 1791,
  "rank": "RANK_4",
  "__update__": "2022-08-10T10:12:29.673Z",
  "pieceName": "リトル・サマー・バケーション",
  "pieceType": "SKILL",
  "attributeId": "ALL",
  "attack": 0,
  "defense": 736,
  "hp": 896,
  "skillId": 179100,
  "pieceSkill": {
    "id": 179100,
    "groupId": 1092,
    "name": "ブランディッシュ[Ⅴ]",
    "type": "SKILL",
    "intervalTurn": 8,
    "shortDescription": "Blast ダメージUP[Ⅴ] & 与えるダメージUP[Ⅲ](自/1T)",
    "messageId": 70,
    "artId1": 310201805,
    "art1": {
      "artId": 310201805,
      "verbCode": "BUFF",
      "effectCode": "BLAST",
      "targetId": "SELF",
      "effectValue": 350,
      "enableTurn": 1,
      "growPoint": 25
    },
    "artId2": 310201303,
    "art2": {
      "artId": 310201303,
      "verbCode": "BUFF",
      "effectCode": "DAMAGE",
      "targetId": "SELF",
      "effectValue": 150,
      "enableTurn": 1,
      "growPoint": 25
    },
    "skillEffectRange": "ALL"
  },
  "skillId2": 179101,
  "pieceSkill2": {
    "id": 179101,
    "groupId": 1092,
    "name": "ブランディッシュ[Ⅴ]",
    "type": "SKILL",
    "intervalTurn": 8,
    "shortDescription": "Blast ダメージUP[Ⅴ] & 与えるダメージUP[Ⅲ](自/1T)",
    "messageId": 70,
    "artId1": 310201805,
    "art1": {
      "artId": 310201805,
      "verbCode": "BUFF",
      "effectCode": "BLAST",
      "targetId": "SELF",
      "effectValue": 350,
      "enableTurn": 1,
      "growPoint": 25
    },
    "artId2": 310201303,
    "art2": {
      "artId": 310201303,
      "verbCode": "BUFF",
      "effectCode": "DAMAGE",
      "targetId": "SELF",
      "effectValue": 150,
      "enableTurn": 1,
      "growPoint": 25
    },
    "skillEffectRange": "ALL"
  },
  "description": "「すごい…サンタさんたちが、約束を守ってくれたんだよ！」＠星の彼方へと旅立った、トナカイサンタの最後の魔法＠未来を信じて歩む者たちに届けられた、獲れたての星屑が彩るのは＠夏なき世界に創られた、小さなサマー・バケーション",
  "illustrator": "―",
  "openDate": "2022/07/29 15:10:00"
}