{
  "pieceId": 1841,
  "rank": "RANK_4",
  "__update__": "2022-12-27T02:27:09.482Z",
  "pieceName": "火の魔王と氷の女王",
  "pieceType": "SKILL",
  "attributeId": "ALL",
  "attack": 0,
  "defense": 858,
  "hp": 778,
  "skillId": 184100,
  "pieceSkill": {
    "id": 184100,
    "groupId": 1220,
    "name": "ドッペル・アップ[Ⅸ]",
    "type": "SKILL",
    "intervalTurn": 7,
    "shortDescription": "ドッペルダメージUP[Ⅸ](自/1T)",
    "messageId": 70,
    "artId1": 310218309,
    "art1": {
      "artId": 310218309,
      "verbCode": "BUFF",
      "effectCode": "DOPPEL",
      "targetId": "SELF",
      "effectValue": 450,
      "enableTurn": 1,
      "growPoint": 0
    },
    "skillEffectRange": "ALL"
  },
  "skillId2": 184101,
  "pieceSkill2": {
    "id": 184101,
    "groupId": 1220,
    "name": "ドッペル・アップ[Ⅸ]",
    "type": "SKILL",
    "intervalTurn": 7,
    "shortDescription": "ドッペルダメージUP[Ⅸ](自/1T)",
    "messageId": 70,
    "artId1": 310218309,
    "art1": {
      "artId": 310218309,
      "verbCode": "BUFF",
      "effectCode": "DOPPEL",
      "targetId": "SELF",
      "effectValue": 450,
      "enableTurn": 1,
      "growPoint": 0
    },
    "skillEffectRange": "ALL"
  },
  "description": "泣き虫で臆病で、私が支えてあげなくちゃと思っていたはずのあなたは＠いつの間にか暗闇から私を連れ出してくれるような強い人になっていた＠光の中から現れた姿は、いつか見た変身ヒロインかヒーローみたいで＠不覚にも「かっこいい」なんて、思ってしまったの",
  "illustrator": "―",
  "openDate": "2022/12/20 15:10:00"
}